B3 Indexes
…
B3 Indexes

The function rb3::indexes_get list the names of available indexes.

indexes_get()
#>  [1] "AGFS" "BDRX" "GPTW" "IBOV" "IBRA" "IBSD" "IBXL" "IBXX" "ICO2" "ICON"
#> [11] "IDIV" "IDVR" "IEEX" "IFIL" "IFIX" "IFNC" "IGCT" "IGCX" "IGNM" "IMAT"
#> [21] "IMOB" "INDX" "ISEE" "ITAG" "IVBX" "MLCX" "SMLL" "UTIL"

Indexes Composition and Weights

The composition of B3 indexes are available through the function rb3::index_weights_get. This function returns a data.frame with the current compostion of the requested index, all symbols that compound the index, their weights and theoretical position. Here the IBOVESPA (IBOV) Index has its composition listed.

index_weights_get("IBOV")
#> # A tibble: 86 × 3
#>    symbol  weight   position
#>    <chr>    <dbl>      <dbl>
#>  1 ABEV3  0.0255  4394245879
#>  2 ALOS3  0.00525  532616595
#>  3 ALPA4  0.00076  166362038
#>  4 ARZZ3  0.00154   62305891
#>  5 ASAI3  0.00857 1349217892
#>  6 AZUL4  0.00171  332825777
#>  7 B3SA3  0.0300  5602790110
#>  8 BBAS3  0.0377  2842247534
#>  9 BBDC3  0.00874 1489259656
#> 10 BBDC4  0.0332  5135772281
#> # ℹ 76 more rows

The IBr100 Index (IBXX)

index_weights_get("IBXX")
#> # A tibble: 100 × 3
#>    symbol  weight   position
#>    <chr>    <dbl>      <dbl>
#>  1 ABEV3  0.0239  4394245879
#>  2 ALOS3  0.00492  532616595
#>  3 ALPA4  0.00072  166362038
#>  4 ARZZ3  0.00144   62305891
#>  5 ASAI3  0.00803 1349217892
#>  6 AURE3  0.00155  301966319
#>  7 AZUL4  0.0016   332825777
#>  8 B3SA3  0.0281  5602790110
#>  9 BBAS3  0.0353  2842247534
#> 10 BBDC3  0.00818 1489259656
#> # ℹ 90 more rows

The Small Caps Index (SMLL)

index_weights_get("SMLL")
#> # A tibble: 118 × 3
#>    symbol  weight  position
#>    <chr>    <dbl>     <dbl>
#>  1 ABCB4  0.00565  72245617
#>  2 AESB3  0.0104  317103937
#>  3 AGRO3  0.00564  63815593
#>  4 ALOS3  0.0385  532616595
#>  5 ALPA4  0.00561 166362038
#>  6 ALUP11 0.0152  151478405
#>  7 AMAR3  0.00018  31628685
#>  8 AMBP3  0.00204  55695890
#>  9 ANIM3  0.00337 257038629
#> 10 ARML3  0.00629 171399108
#> # ℹ 108 more rows
…
Index by Segment

rb3::index_by_segment_get returns a data.frame with all stocks that are in the index, their economic segment, weights, position and segment weight in the index.

index_by_segment_get("IBOV")
#> # A tibble: 86 × 6
#>    symbol segment                      weight segment_weight position refdate   
#>    <chr>  <chr>                         <dbl>          <dbl>    <dbl> <date>    
#>  1 WEGE3  Bens Indls / Máqs e Equips  0.0321          0.0321   1.48e9 2024-07-15
#>  2 EMBR3  Bens Indls / Mat Transporte 0.0140          0.0140   7.35e8 2024-07-15
#>  3 AZUL4  Bens Indls/Transporte       0.00139         0.0206   3.33e8 2024-07-15
#>  4 CCRO3  Bens Indls/Transporte       0.0061          0.0206   9.95e8 2024-07-15
#>  5 RAIL3  Bens Indls/Transporte       0.0131          0.0206   1.22e9 2024-07-15
#>  6 BRFS3  Cons N  Básico / Alimentos… 0.00886         0.031    8.35e8 2024-07-15
#>  7 JBSS3  Cons N  Básico / Alimentos… 0.0172          0.031    1.13e9 2024-07-15
#>  8 MRFG3  Cons N  Básico / Alimentos… 0.00192         0.031    3.32e8 2024-07-15
#>  9 BEEF3  Cons N  Básico / Alimentos… 0.00084         0.031    2.61e8 2024-07-15
#> 10 SMTO3  Cons N  Básico / Alimentos… 0.00218         0.031    1.42e8 2024-07-15
#> # ℹ 76 more rows
…
